Verilog/output.txt
VCD info: dumpfile tb_top.vcd opened for output.
==============================================
INICIO DA SIMULACAO
==============================================
[10000000000] clk | rst=1 mode_sel=0 start=0 keys_raw=000000000000 | key_any=0 key_valid=0 key_error=0 key_code_current=0 key_code_reg=x key_valid_pulse=x | UC=         UNKNOWN | MC=         UNKNOWN | mc_send_note=x mc_note_out=x correct=x wrong=x done=x | leds_out=xxxxxxxxxxxx leds_out_reg=xxxxxxxxxxxx | rgb_r=xxxxxxxxxxxx rgb_g=xxxxxxxxxxxx rgb_b=xxxxxxxxxxxx | uart_busy=0 esp_txd=1
[30000000000] clk | rst=1 mode_sel=0 start=0 keys_raw=000000000000 | key_any=0 key_valid=0 key_error=0 key_code_current=0 key_code_reg=0 key_valid_pulse=0 | UC=            SCAN | MC=       FREE_MODE | mc_send_note=0 mc_note_out=0 correct=0 wrong=0 done=0 | leds_out=000000000000 leds_out_reg=000000000001 | rgb_r=000000000000 rgb_g=000000000000 rgb_b=000000000000 | uart_busy=0 esp_txd=1
[50000000000] clk | rst=1 mode_sel=0 start=0 keys_raw=000000000000 | key_any=0 key_valid=0 key_error=0 key_code_current=0 key_code_reg=0 key_valid_pulse=0 | UC=            SCAN | MC=       FREE_MODE | mc_send_note=0 mc_note_out=0 correct=0 wrong=0 done=0 | leds_out=000000000000 leds_out_reg=000000000001 | rgb_r=000000000000 rgb_g=000000000000 rgb_b=000000000000 | uart_busy=0 esp_txd=1
[70000000000] clk | rst=1 mode_sel=0 start=0 keys_raw=000000000000 | key_any=0 key_valid=0 key_error=0 key_code_current=0 key_code_reg=0 key_valid_pulse=0 | UC=            SCAN | MC=       FREE_MODE | mc_send_note=0 mc_note_out=0 correct=0 wrong=0 done=0 | leds_out=000000000000 leds_out_reg=000000000001 | rgb_r=000000000000 rgb_g=000000000000 rgb_b=000000000000 | uart_busy=0 esp_txd=1
[90000000000] clk | rst=1 mode_sel=0 start=0 keys_raw=000000000000 | key_any=0 key_valid=0 key_error=0 key_code_current=0 key_code_reg=0 key_valid_pulse=0 | UC=            SCAN | MC=       FREE_MODE | mc_send_note=0 mc_note_out=0 correct=0 wrong=0 done=0 | leds_out=000000000000 leds_out_reg=000000000001 | rgb_r=000000000000 rgb_g=000000000000 rgb_b=000000000000 | uart_busy=0 esp_txd=1
[110000000000] clk | rst=1 mode_sel=0 start=0 keys_raw=000000000000 | key_any=0 key_valid=0 key_error=0 key_code_current=0 key_code_reg=0 key_valid_pulse=0 | UC=            SCAN | MC=       FREE_MODE | mc_send_note=0 mc_note_out=0 correct=0 wrong=0 done=0 | leds_out=000000000000 leds_out_reg=000000000001 | rgb_r=000000000000 rgb_g=000000000000 rgb_b=000000000000 | uart_busy=0 esp_txd=1
[130000000000] clk | rst=1 mode_sel=0 start=0 keys_raw=000000000000 | key_any=0 key_valid=0 key_error=0 key_code_current=0 key_code_reg=0 key_valid_pulse=0 | UC=            SCAN | MC=       FREE_MODE | mc_send_note=0 mc_note_out=0 correct=0 wrong=0 done=0 | leds_out=000000000000 leds_out_reg=000000000001 | rgb_r=000000000000 rgb_g=000000000000 rgb_b=000000000000 | uart_busy=0 esp_txd=1
[150000000000] clk | rst=1 mode_sel=0 start=0 keys_raw=000000000000 | key_any=0 key_valid=0 key_error=0 key_code_current=0 key_code_reg=0 key_valid_pulse=0 | UC=            SCAN | MC=       FREE_MODE | mc_send_note=0 mc_note_out=0 correct=0 wrong=0 done=0 | leds_out=000000000000 leds_out_reg=000000000001 | rgb_r=000000000000 rgb_g=000000000000 rgb_b=000000000000 | uart_busy=0 esp_txd=1
[170000000000] clk | rst=1 mode_sel=0 start=0 keys_raw=000000000000 | key_any=0 key_valid=0 key_error=0 key_code_current=0 key_code_reg=0 key_valid_pulse=0 | UC=            SCAN | MC=       FREE_MODE | mc_send_note=0 mc_note_out=0 correct=0 wrong=0 done=0 | leds_out=000000000000 leds_out_reg=000000000001 | rgb_r=000000000000 rgb_g=000000000000 rgb_b=000000000000 | uart_busy=0 esp_txd=1
[190000000000] clk | rst=1 mode_sel=0 start=0 keys_raw=000000000000 | key_any=0 key_valid=0 key_error=0 key_code_current=0 key_code_reg=0 key_valid_pulse=0 | UC=            SCAN | MC=       FREE_MODE | mc_send_note=0 mc_note_out=0 correct=0 wrong=0 done=0 | leds_out=000000000000 leds_out_reg=000000000001 | rgb_r=000000000000 rgb_g=000000000000 rgb_b=000000000000 | uart_busy=0 esp_txd=1

==============================================
TESTE 1 - MODO LIVRE
==============================================

[190000000000] >>> PRESS_KEY: tecla=3, hold_cycles=20
[210000000000] clk | rst=0 mode_sel=0 start=0 keys_raw=000000001000 | key_any=0 key_valid=0 key_error=0 key_code_current=0 key_code_reg=0 key_valid_pulse=0 | UC=            SCAN | MC=       FREE_MODE | mc_send_note=0 mc_note_out=0 correct=0 wrong=0 done=0 | leds_out=000000000000 leds_out_reg=000000000001 | rgb_r=000000000000 rgb_g=000000000000 rgb_b=000000000000 | uart_busy=0 esp_txd=1
[230000000000] clk | rst=0 mode_sel=0 start=0 keys_raw=000000001000 | key_any=0 key_valid=0 key_error=0 key_code_current=0 key_code_reg=0 key_valid_pulse=0 | UC=            SCAN | MC=       FREE_MODE | mc_send_note=0 mc_note_out=0 correct=0 wrong=0 done=0 | leds_out=000000000000 leds_out_reg=000000000001 | rgb_r=000000000000 rgb_g=000000000000 rgb_b=000000000000 | uart_busy=0 esp_txd=1
[250000000000] clk | rst=0 mode_sel=0 start=0 keys_raw=000000001000 | key_any=0 key_valid=0 key_error=0 key_code_current=0 key_code_reg=0 key_valid_pulse=0 | UC=            SCAN | MC=       FREE_MODE | mc_send_note=0 mc_note_out=0 correct=0 wrong=0 done=0 | leds_out=000000000000 leds_out_reg=000000000001 | rgb_r=000000000000 rgb_g=000000000000 rgb_b=000000000000 | uart_busy=0 esp_txd=1
[270000000000] clk | rst=0 mode_sel=0 start=0 keys_raw=000000001000 | key_any=1 key_valid=1 key_error=0 key_code_current=3 key_code_reg=0 key_valid_pulse=0 | UC=            SCAN | MC=       FREE_MODE | mc_send_note=0 mc_note_out=0 correct=0 wrong=0 done=0 | leds_out=000000000000 leds_out_reg=000000000001 | rgb_r=000000000000 rgb_g=000000000000 rgb_b=000000000000 | uart_busy=0 esp_txd=1
[290000000000] >>> UC mudou de estado:             SCAN ->         REGISTER
[290000000000] *** EVENTO: key_valid_pulse=1 | key_code_reg=0
[290000000000] *** EVENTO: mc_send_note=1 | mc_note_out=0
[290000000000] clk | rst=0 mode_sel=0 start=0 keys_raw=000000001000 | key_any=1 key_valid=1 key_error=0 key_code_current=3 key_code_reg=0 key_valid_pulse=1 | UC=        REGISTER | MC=       FREE_MODE | mc_send_note=1 mc_note_out=0 correct=0 wrong=0 done=0 | leds_out=000000000001 leds_out_reg=000000000001 | rgb_r=000000000001 rgb_g=000000000001 rgb_b=000000000001 | uart_busy=0 esp_txd=1
[310000000000] clk | rst=0 mode_sel=0 start=0 keys_raw=000000001000 | key_any=1 key_valid=1 key_error=0 key_code_current=3 key_code_reg=3 key_valid_pulse=0 | UC=    WAIT_RELEASE | MC=       FREE_MODE | mc_send_note=0 mc_note_out=0 correct=0 wrong=0 done=0 | leds_out=000000000000 leds_out_reg=000000001000 | rgb_r=000000000000 rgb_g=000000000000 rgb_b=000000000000 | uart_busy=0 esp_txd=1
[310000000000] >>> UC mudou de estado:         REGISTER ->     WAIT_RELEASE
[330000000000] clk | rst=0 mode_sel=0 start=0 keys_raw=000000001000 | key_any=1 key_valid=1 key_error=0 key_code_current=3 key_code_reg=3 key_valid_pulse=0 | UC=    WAIT_RELEASE | MC=       FREE_MODE | mc_send_note=0 mc_note_out=0 correct=0 wrong=0 done=0 | leds_out=000000000000 leds_out_reg=000000001000 | rgb_r=000000000000 rgb_g=000000000000 rgb_b=000000000000 | uart_busy=0 esp_txd=1
[350000000000] clk | rst=0 mode_sel=0 start=0 keys_raw=000000001000 | key_any=1 key_valid=1 key_error=0 key_code_current=3 key_code_reg=3 key_valid_pulse=0 | UC=    WAIT_RELEASE | MC=       FREE_MODE | mc_send_note=0 mc_note_out=0 correct=0 wrong=0 done=0 | leds_out=000000000000 leds_out_reg=000000001000 | rgb_r=000000000000 rgb_g=000000000000 rgb_b=000000000000 | uart_busy=1 esp_txd=0
[370000000000] clk | rst=0 mode_sel=0 start=0 keys_raw=000000001000 | key_any=1 key_valid=1 key_error=0 key_code_current=3 key_code_reg=3 key_valid_pulse=0 | UC=    WAIT_RELEASE | MC=       FREE_MODE | mc_send_note=0 mc_note_out=0 correct=0 wrong=0 done=0 | leds_out=000000000000 leds_out_reg=000000001000 | rgb_r=000000000000 rgb_g=000000000000 rgb_b=000000000000 | uart_busy=1 esp_txd=0
[390000000000] clk | rst=0 mode_sel=0 start=0 keys_raw=000000001000 | key_any=1 key_valid=1 key_error=0 key_code_current=3 key_code_reg=3 key_valid_pulse=0 | UC=    WAIT_RELEASE | MC=       FREE_MODE | mc_send_note=0 mc_note_out=0 correct=0 wrong=0 done=0 | leds_out=000000000000 leds_out_reg=000000001000 | rgb_r=000000000000 rgb_g=000000000000 rgb_b=000000000000 | uart_busy=1 esp_txd=0
[410000000000] clk | rst=0 mode_sel=0 start=0 keys_raw=000000001000 | key_any=1 key_valid=1 key_error=0 key_code_current=3 key_code_reg=3 key_valid_pulse=0 | UC=    WAIT_RELEASE | MC=       FREE_MODE | mc_send_note=0 mc_note_out=0 correct=0 wrong=0 done=0 | leds_out=000000000000 leds_out_reg=000000001000 | rgb_r=000000000000 rgb_g=000000000000 rgb_b=000000000000 | uart_busy=1 esp_txd=0
[430000000000] clk | rst=0 mode_sel=0 start=0 keys_raw=000000001000 | key_any=1 key_valid=1 key_error=0 key_code_current=3 key_code_reg=3 key_valid_pulse=0 | UC=    WAIT_RELEASE | MC=       FREE_MODE | mc_send_note=0 mc_note_out=0 correct=0 wrong=0 done=0 | leds_out=000000000000 leds_out_reg=000000001000 | rgb_r=000000000000 rgb_g=000000000000 rgb_b=000000000000 | uart_busy=1 esp_txd=0
[450000000000] clk | rst=0 mode_sel=0 start=0 keys_raw=000000001000 | key_any=1 key_valid=1 key_error=0 key_code_current=3 key_code_reg=3 key_valid_pulse=0 | UC=    WAIT_RELEASE | MC=       FREE_MODE | mc_send_note=0 mc_note_out=0 correct=0 wrong=0 done=0 | leds_out=000000000000 leds_out_reg=000000001000 | rgb_r=000000000000 rgb_g=000000000000 rgb_b=000000000000 | uart_busy=1 esp_txd=0
[470000000000] clk | rst=0 mode_sel=0 start=0 keys_raw=000000001000 | key_any=1 key_valid=1 key_error=0 key_code_current=3 key_code_reg=3 key_valid_pulse=0 | UC=    WAIT_RELEASE | MC=       FREE_MODE | mc_send_note=0 mc_note_out=0 correct=0 wrong=0 done=0 | leds_out=000000000000 leds_out_reg=000000001000 | rgb_r=000000000000 rgb_g=000000000000 rgb_b=000000000000 | uart_busy=1 esp_txd=0
[490000000000] clk | rst=0 mode_sel=0 start=0 keys_raw=000000001000 | key_any=1 key_valid=1 key_error=0 key_code_current=3 key_code_reg=3 key_valid_pulse=0 | UC=    WAIT_RELEASE | MC=       FREE_MODE | mc_send_note=0 mc_note_out=0 correct=0 wrong=0 done=0 | leds_out=000000000000 leds_out_reg=000000001000 | rgb_r=000000000000 rgb_g=000000000000 rgb_b=000000000000 | uart_busy=1 esp_txd=0
[510000000000] clk | rst=0 mode_sel=0 start=0 keys_raw=000000001000 | key_any=1 key_valid=1 key_error=0 key_code_current=3 key_code_reg=3 key_valid_pulse=0 | UC=    WAIT_RELEASE | MC=       FREE_MODE | mc_send_note=0 mc_note_out=0 correct=0 wrong=0 done=0 | leds_out=000000000000 leds_out_reg=000000001000 | rgb_r=000000000000 rgb_g=000000000000 rgb_b=000000000000 | uart_busy=1 esp_txd=0
[530000000000] clk | rst=0 mode_sel=0 start=0 keys_raw=000000001000 | key_any=1 key_valid=1 key_error=0 key_code_current=3 key_code_reg=3 key_valid_pulse=0 | UC=    WAIT_RELEASE | MC=       FREE_MODE | mc_send_note=0 mc_note_out=0 correct=0 wrong=0 done=0 | leds_out=000000000000 leds_out_reg=000000001000 | rgb_r=000000000000 rgb_g=000000000000 rgb_b=000000000000 | uart_busy=1 esp_txd=0
[550000000000] clk | rst=0 mode_sel=0 start=0 keys_raw=000000001000 | key_any=1 key_valid=1 key_error=0 key_code_current=3 key_code_reg=3 key_valid_pulse=0 | UC=    WAIT_RELEASE | MC=       FREE_MODE | mc_send_note=0 mc_note_out=0 correct=0 wrong=0 done=0 | leds_out=000000000000 leds_out_reg=000000001000 | rgb_r=000000000000 rgb_g=000000000000 rgb_b=000000000000 | uart_busy=1 esp_txd=0
[570000000000] clk | rst=0 mode_sel=0 start=0 keys_raw=000000001000 | key_any=1 key_valid=1 key_error=0 key_code_current=3 key_code_reg=3 key_valid_pulse=0 | UC=    WAIT_RELEASE | MC=       FREE_MODE | mc_send_note=0 mc_note_out=0 correct=0 wrong=0 done=0 | leds_out=000000000000 leds_out_reg=000000001000 | rgb_r=000000000000 rgb_g=000000000000 rgb_b=000000000000 | uart_busy=1 esp_txd=0
[590000000000] clk | rst=0 mode_sel=0 start=0 keys_raw=000000001000 | key_any=1 key_valid=1 key_error=0 key_code_current=3 key_code_reg=3 key_valid_pulse=0 | UC=    WAIT_RELEASE | MC=       FREE_MODE | mc_send_note=0 mc_note_out=0 correct=0 wrong=0 done=0 | leds_out=000000000000 leds_out_reg=000000001000 | rgb_r=000000000000 rgb_g=000000000000 rgb_b=000000000000 | uart_busy=1 esp_txd=0
[590000000000] <<< RELEASE_KEY: tecla=3
[610000000000] clk | rst=0 mode_sel=0 start=0 keys_raw=000000000000 | key_any=1 key_valid=1 key_error=0 key_code_current=3 key_code_reg=3 key_valid_pulse=0 | UC=    WAIT_RELEASE | MC=       FREE_MODE | mc_send_note=0 mc_note_out=0 correct=0 wrong=0 done=0 | leds_out=000000000000 leds_out_reg=000000001000 | rgb_r=000000000000 rgb_g=000000000000 rgb_b=000000000000 | uart_busy=1 esp_txd=0
[630000000000] clk | rst=0 mode_sel=0 start=0 keys_raw=000000000000 | key_any=1 key_valid=1 key_error=0 key_code_current=3 key_code_reg=3 key_valid_pulse=0 | UC=    WAIT_RELEASE | MC=       FREE_MODE | mc_send_note=0 mc_note_out=0 correct=0 wrong=0 done=0 | leds_out=000000000000 leds_out_reg=000000001000 | rgb_r=000000000000 rgb_g=000000000000 rgb_b=000000000000 | uart_busy=1 esp_txd=0
[650000000000] clk | rst=0 mode_sel=0 start=0 keys_raw=000000000000 | key_any=1 key_valid=1 key_error=0 key_code_current=3 key_code_reg=3 key_valid_pulse=0 | UC=    WAIT_RELEASE | MC=       FREE_MODE | mc_send_note=0 mc_note_out=0 correct=0 wrong=0 done=0 | leds_out=000000000000 leds_out_reg=000000001000 | rgb_r=000000000000 rgb_g=000000000000 rgb_b=000000000000 | uart_busy=1 esp_txd=0
[670000000000] clk | rst=0 mode_sel=0 start=0 keys_raw=000000000000 | key_any=0 key_valid=0 key_error=0 key_code_current=0 key_code_reg=3 key_valid_pulse=0 | UC=    WAIT_RELEASE | MC=       FREE_MODE | mc_send_note=0 mc_note_out=0 correct=0 wrong=0 done=0 | leds_out=000000000000 leds_out_reg=000000001000 | rgb_r=000000000000 rgb_g=000000000000 rgb_b=000000000000 | uart_busy=1 esp_txd=0
[690000000000] >>> UC mudou de estado:     WAIT_RELEASE ->             SCAN
[690000000000] clk | rst=0 mode_sel=0 start=0 keys_raw=000000000000 | key_any=0 key_valid=0 key_error=0 key_code_current=0 key_code_reg=3 key_valid_pulse=0 | UC=            SCAN | MC=       FREE_MODE | mc_send_note=0 mc_note_out=0 correct=0 wrong=0 done=0 | leds_out=000000000000 leds_out_reg=000000001000 | rgb_r=000000000000 rgb_g=000000000000 rgb_b=000000000000 | uart_busy=1 esp_txd=0
[710000000000] clk | rst=0 mode_sel=0 start=0 keys_raw=000000000000 | key_any=0 key_valid=0 key_error=0 key_code_current=0 key_code_reg=3 key_valid_pulse=0 | UC=            SCAN | MC=       FREE_MODE | mc_send_note=0 mc_note_out=0 correct=0 wrong=0 done=0 | leds_out=000000000000 leds_out_reg=000000001000 | rgb_r=000000000000 rgb_g=000000000000 rgb_b=000000000000 | uart_busy=1 esp_txd=0
[730000000000] clk | rst=0 mode_sel=0 start=0 keys_raw=000000000000 | key_any=0 key_valid=0 key_error=0 key_code_current=0 key_code_reg=3 key_valid_pulse=0 | UC=            SCAN | MC=       FREE_MODE | mc_send_note=0 mc_note_out=0 correct=0 wrong=0 done=0 | leds_out=000000000000 leds_out_reg=000000001000 | rgb_r=000000000000 rgb_g=000000000000 rgb_b=000000000000 | uart_busy=1 esp_txd=0
[750000000000] clk | rst=0 mode_sel=0 start=0 keys_raw=000000000000 | key_any=0 key_valid=0 key_error=0 key_code_current=0 key_code_reg=3 key_valid_pulse=0 | UC=            SCAN | MC=       FREE_MODE | mc_send_note=0 mc_note_out=0 correct=0 wrong=0 done=0 | leds_out=000000000000 leds_out_reg=000000001000 | rgb_r=000000000000 rgb_g=000000000000 rgb_b=000000000000 | uart_busy=1 esp_txd=0
[770000000000] clk | rst=0 mode_sel=0 start=0 keys_raw=000000000000 | key_any=0 key_valid=0 key_error=0 key_code_current=0 key_code_reg=3 key_valid_pulse=0 | UC=            SCAN | MC=       FREE_MODE | mc_send_note=0 mc_note_out=0 correct=0 wrong=0 done=0 | leds_out=000000000000 leds_out_reg=000000001000 | rgb_r=000000000000 rgb_g=000000000000 rgb_b=000000000000 | uart_busy=1 esp_txd=0
[790000000000] clk | rst=0 mode_sel=0 start=0 keys_raw=000000000000 | key_any=0 key_valid=0 key_error=0 key_code_current=0 key_code_reg=3 key_valid_pulse=0 | UC=            SCAN | MC=       FREE_MODE | mc_send_note=0 mc_note_out=0 correct=0 wrong=0 done=0 | leds_out=000000000000 leds_out_reg=000000001000 | rgb_r=000000000000 rgb_g=000000000000 rgb_b=000000000000 | uart_busy=1 esp_txd=0

[790000000000] >>> PRESS_KEY: tecla=7, hold_cycles=20
[810000000000] clk | rst=0 mode_sel=0 start=0 keys_raw=000010000000 | key_any=0 key_valid=0 key_error=0 key_code_current=0 key_code_reg=3 key_valid_pulse=0 | UC=            SCAN | MC=       FREE_MODE | mc_send_note=0 mc_note_out=0 correct=0 wrong=0 done=0 | leds_out=000000000000 leds_out_reg=000000001000 | rgb_r=000000000000 rgb_g=000000000000 rgb_b=000000000000 | uart_busy=1 esp_txd=0
[830000000000] clk | rst=0 mode_sel=0 start=0 keys_raw=000010000000 | key_any=0 key_valid=0 key_error=0 key_code_current=0 key_code_reg=3 key_valid_pulse=0 | UC=            SCAN | MC=       FREE_MODE | mc_send_note=0 mc_note_out=0 correct=0 wrong=0 done=0 | leds_out=000000000000 leds_out_reg=000000001000 | rgb_r=000000000000 rgb_g=000000000000 rgb_b=000000000000 | uart_busy=1 esp_txd=0
[850000000000] clk | rst=0 mode_sel=0 start=0 keys_raw=000010000000 | key_any=0 key_valid=0 key_error=0 key_code_current=0 key_code_reg=3 key_valid_pulse=0 | UC=            SCAN | MC=       FREE_MODE | mc_send_note=0 mc_note_out=0 correct=0 wrong=0 done=0 | leds_out=000000000000 leds_out_reg=000000001000 | rgb_r=000000000000 rgb_g=000000000000 rgb_b=000000000000 | uart_busy=1 esp_txd=0
[870000000000] clk | rst=0 mode_sel=0 start=0 keys_raw=000010000000 | key_any=1 key_valid=1 key_error=0 key_code_current=7 key_code_reg=3 key_valid_pulse=0 | UC=            SCAN | MC=       FREE_MODE | mc_send_note=0 mc_note_out=0 correct=0 wrong=0 done=0 | leds_out=000000000000 leds_out_reg=000000001000 | rgb_r=000000000000 rgb_g=000000000000 rgb_b=000000000000 | uart_busy=1 esp_txd=0
[890000000000] >>> UC mudou de estado:             SCAN ->         REGISTER
[890000000000] *** EVENTO: key_valid_pulse=1 | key_code_reg=3
[890000000000] *** EVENTO: mc_send_note=1 | mc_note_out=3
[890000000000] clk | rst=0 mode_sel=0 start=0 keys_raw=000010000000 | key_any=1 key_valid=1 key_error=0 key_code_current=7 key_code_reg=3 key_valid_pulse=1 | UC=        REGISTER | MC=       FREE_MODE | mc_send_note=1 mc_note_out=3 correct=0 wrong=0 done=0 | leds_out=000000001000 leds_out_reg=000000001000 | rgb_r=000000001000 rgb_g=000000001000 rgb_b=000000001000 | uart_busy=1 esp_txd=0
[910000000000] clk | rst=0 mode_sel=0 start=0 keys_raw=000010000000 | key_any=1 key_valid=1 key_error=0 key_code_current=7 key_code_reg=7 key_valid_pulse=0 | UC=    WAIT_RELEASE | MC=       FREE_MODE | mc_send_note=0 mc_note_out=0 correct=0 wrong=0 done=0 | leds_out=000000000000 leds_out_reg=000010000000 | rgb_r=000000000000 rgb_g=000000000000 rgb_b=000000000000 | uart_busy=1 esp_txd=0
[910000000000] >>> UC mudou de estado:         REGISTER ->     WAIT_RELEASE
[930000000000] clk | rst=0 mode_sel=0 start=0 keys_raw=000010000000 | key_any=1 key_valid=1 key_error=0 key_code_current=7 key_code_reg=7 key_valid_pulse=0 | UC=    WAIT_RELEASE | MC=       FREE_MODE | mc_send_note=0 mc_note_out=0 correct=0 wrong=0 done=0 | leds_out=000000000000 leds_out_reg=000010000000 | rgb_r=000000000000 rgb_g=000000000000 rgb_b=000000000000 | uart_busy=1 esp_txd=0
[950000000000] clk | rst=0 mode_sel=0 start=0 keys_raw=000010000000 | key_any=1 key_valid=1 key_error=0 key_code_current=7 key_code_reg=7 key_valid_pulse=0 | UC=    WAIT_RELEASE | MC=       FREE_MODE | mc_send_note=0 mc_note_out=0 correct=0 wrong=0 done=0 | leds_out=000000000000 leds_out_reg=000010000000 | rgb_r=000000000000 rgb_g=000000000000 rgb_b=000000000000 | uart_busy=1 esp_txd=0
[970000000000] clk | rst=0 mode_sel=0 start=0 keys_raw=000010000000 | key_any=1 key_valid=1 key_error=0 key_code_current=7 key_code_reg=7 key_valid_pulse=0 | UC=    WAIT_RELEASE | MC=       FREE_MODE | mc_send_note=0 mc_note_out=0 correct=0 wrong=0 done=0 | leds_out=000000000000 leds_out_reg=000010000000 | rgb_r=000000000000 rgb_g=000000000000 rgb_b=000000000000 | uart_busy=1 esp_txd=0
[990000000000] clk | rst=0 mode_sel=0 start=0 keys_raw=000010000000 | key_any=1 key_valid=1 key_error=0 key_code_current=7 key_code_reg=7 key_valid_pulse=0 | UC=    WAIT_RELEASE | MC=       FREE_MODE | mc_send_note=0 mc_note_out=0 correct=0 wrong=0 done=0 | leds_out=000000000000 leds_out_reg=000010000000 | rgb_r=000000000000 rgb_g=000000000000 rgb_b=000000000000 | uart_busy=1 esp_txd=0
[1010000000000] clk | rst=0 mode_sel=0 start=0 keys_raw=000010000000 | key_any=1 key_valid=1 key_error=0 key_code_current=7 key_code_reg=7 key_valid_pulse=0 | UC=    WAIT_RELEASE | MC=       FREE_MODE | mc_send_note=0 mc_note_out=0 correct=0 wrong=0 done=0 | leds_out=000000000000 leds_out_reg=000010000000 | rgb_r=000000000000 rgb_g=000000000000 rgb_b=000000000000 | uart_busy=1 esp_txd=0
[1030000000000] clk | rst=0 mode_sel=0 start=0 keys_raw=000010000000 | key_any=1 key_valid=1 key_error=0 key_code_current=7 key_code_reg=7 key_valid_pulse=0 | UC=    WAIT_RELEASE | MC=       FREE_MODE | mc_send_note=0 mc_note_out=0 correct=0 wrong=0 done=0 | leds_out=000000000000 leds_out_reg=000010000000 | rgb_r=000000000000 rgb_g=000000000000 rgb_b=000000000000 | uart_busy=1 esp_txd=0
[1050000000000] clk | rst=0 mode_sel=0 start=0 keys_raw=000010000000 | key_any=1 key_valid=1 key_error=0 key_code_current=7 key_code_reg=7 key_valid_pulse=0 | UC=    WAIT_RELEASE | MC=       FREE_MODE | mc_send_note=0 mc_note_out=0 correct=0 wrong=0 done=0 | leds_out=000000000000 leds_out_reg=000010000000 | rgb_r=000000000000 rgb_g=000000000000 rgb_b=000000000000 | uart_busy=1 esp_txd=0
[1070000000000] clk | rst=0 mode_sel=0 start=0 keys_raw=000010000000 | key_any=1 key_valid=1 key_error=0 key_code_current=7 key_code_reg=7 key_valid_pulse=0 | UC=    WAIT_RELEASE | MC=       FREE_MODE | mc_send_note=0 mc_note_out=0 correct=0 wrong=0 done=0 | leds_out=000000000000 leds_out_reg=000010000000 | rgb_r=000000000000 rgb_g=000000000000 rgb_b=000000000000 | uart_busy=1 esp_txd=0
[1090000000000] clk | rst=0 mode_sel=0 start=0 keys_raw=000010000000 | key_any=1 key_valid=1 key_error=0 key_code_current=7 key_code_reg=7 key_valid_pulse=0 | UC=    WAIT_RELEASE | MC=       FREE_MODE | mc_send_note=0 mc_note_out=0 correct=0 wrong=0 done=0 | leds_out=000000000000 leds_out_reg=000010000000 | rgb_r=000000000000 rgb_g=000000000000 rgb_b=000000000000 | uart_busy=1 esp_txd=0
[1110000000000] clk | rst=0 mode_sel=0 start=0 keys_raw=000010000000 | key_any=1 key_valid=1 key_error=0 key_code_current=7 key_code_reg=7 key_valid_pulse=0 | UC=    WAIT_RELEASE | MC=       FREE_MODE | mc_send_note=0 mc_note_out=0 correct=0 wrong=0 done=0 | leds_out=000000000000 leds_out_reg=000010000000 | rgb_r=000000000000 rgb_g=000000000000 rgb_b=000000000000 | uart_busy=1 esp_txd=0
[1130000000000] clk | rst=0 mode_sel=0 start=0 keys_raw=000010000000 | key_any=1 key_valid=1 key_error=0 key_code_current=7 key_code_reg=7 key_valid_pulse=0 | UC=    WAIT_RELEASE | MC=       FREE_MODE | mc_send_note=0 mc_note_out=0 correct=0 wrong=0 done=0 | leds_out=000000000000 leds_out_reg=000010000000 | rgb_r=000000000000 rgb_g=000000000000 rgb_b=000000000000 | uart_busy=1 esp_txd=0
[1150000000000] clk | rst=0 mode_sel=0 start=0 keys_raw=000010000000 | key_any=1 key_valid=1 key_error=0 key_code_current=7 key_code_reg=7 key_valid_pulse=0 | UC=    WAIT_RELEASE | MC=       FREE_MODE | mc_send_note=0 mc_note_out=0 correct=0 wrong=0 done=0 | leds_out=000000000000 leds_out_reg=000010000000 | rgb_r=000000000000 rgb_g=000000000000 rgb_b=000000000000 | uart_busy=1 esp_txd=0
[1170000000000] clk | rst=0 mode_sel=0 start=0 keys_raw=000010000000 | key_any=1 key_valid=1 key_error=0 key_code_current=7 key_code_reg=7 key_valid_pulse=0 | UC=    WAIT_RELEASE | MC=       FREE_MODE | mc_send_note=0 mc_note_out=0 correct=0 wrong=0 done=0 | leds_out=000000000000 leds_out_reg=000010000000 | rgb_r=000000000000 rgb_g=000000000000 rgb_b=000000000000 | uart_busy=1 esp_txd=0
[1190000000000] clk | rst=0 mode_sel=0 start=0 keys_raw=000010000000 | key_any=1 key_valid=1 key_error=0 key_code_current=7 key_code_reg=7 key_valid_pulse=0 | UC=    WAIT_RELEASE | MC=       FREE_MODE | mc_send_note=0 mc_note_out=0 correct=0 wrong=0 done=0 | leds_out=000000000000 leds_out_reg=000010000000 | rgb_r=000000000000 rgb_g=000000000000 rgb_b=000000000000 | uart_busy=1 esp_txd=0
[1190000000000] <<< RELEASE_KEY: tecla=7
[1210000000000] clk | rst=0 mode_sel=0 start=0 keys_raw=000000000000 | key_any=1 key_valid=1 key_error=0 key_code_current=7 key_code_reg=7 key_valid_pulse=0 | UC=    WAIT_RELEASE | MC=       FREE_MODE | mc_send_note=0 mc_note_out=0 correct=0 wrong=0 done=0 | leds_out=000000000000 leds_out_reg=000010000000 | rgb_r=000000000000 rgb_g=000000000000 rgb_b=000000000000 | uart_busy=1 esp_txd=0
[1230000000000] clk | rst=0 mode_sel=0 start=0 keys_raw=000000000000 | key_any=1 key_valid=1 key_error=0 key_code_current=7 key_code_reg=7 key_valid_pulse=0 | UC=    WAIT_RELEASE | MC=       FREE_MODE | mc_send_note=0 mc_note_out=0 correct=0 wrong=0 done=0 | leds_out=000000000000 leds_out_reg=000010000000 | rgb_r=000000000000 rgb_g=000000000000 rgb_b=000000000000 | uart_busy=1 esp_txd=0
[1250000000000] clk | rst=0 mode_sel=0 start=0 keys_raw=000000000000 | key_any=1 key_valid=1 key_error=0 key_code_current=7 key_code_reg=7 key_valid_pulse=0 | UC=    WAIT_RELEASE | MC=       FREE_MODE | mc_send_note=0 mc_note_out=0 correct=0 wrong=0 done=0 | leds_out=000000000000 leds_out_reg=000010000000 | rgb_r=000000000000 rgb_g=000000000000 rgb_b=000000000000 | uart_busy=1 esp_txd=0
[1270000000000] clk | rst=0 mode_sel=0 start=0 keys_raw=000000000000 | key_any=0 key_valid=0 key_error=0 key_code_current=0 key_code_reg=7 key_valid_pulse=0 | UC=    WAIT_RELEASE | MC=       FREE_MODE | mc_send_note=0 mc_note_out=0 correct=0 wrong=0 done=0 | leds_out=000000000000 leds_out_reg=000010000000 | rgb_r=000000000000 rgb_g=000000000000 rgb_b=000000000000 | uart_busy=1 esp_txd=0
[1290000000000] >>> UC mudou de estado:     WAIT_RELEASE ->             SCAN
[1290000000000] clk | rst=0 mode_sel=0 start=0 keys_raw=000000000000 | key_any=0 key_valid=0 key_error=0 key_code_current=0 key_code_reg=7 key_valid_pulse=0 | UC=            SCAN | MC=       FREE_MODE | mc_send_note=0 mc_note_out=0 correct=0 wrong=0 done=0 | leds_out=000000000000 leds_out_reg=000010000000 | rgb_r=000000000000 rgb_g=000000000000 rgb_b=000000000000 | uart_busy=1 esp_txd=0
